{
  "data": [
    {
      "type": "activities",
      "id": "3252",
      "attributes": {
        "text": "Du hast dein Profil ge\u00e4ndert.",
        "name": null,
        "uri": "api.trackyourstress.org\/api\/v1\/users\/199",
        "created_at": {
          "date": "2019-11-25 19:24:46.000000",
          "timezone_type": 3,
          "timezone": "UTC"
        }
      },
      "links": {
        "self": "api.trackyourstress.org\/api\/v1\/activities\/3252"
      }
    },
    {
      "type": "activities",
      "id": "3253",
      "attributes": {
        "text": "Du hast dein Profil ge\u00e4ndert.",
        "name": null,
        "uri": "api.trackyourstress.org\/api\/v1\/users\/199",
        "created_at": {
          "date": "2019-11-25 19:25:28.000000",
          "timezone_type": 3,
          "timezone": "UTC"
        }
      },
      "links": {
        "self": "api.trackyourstress.org\/api\/v1\/activities\/3253"
      }
    },
    {
      "type": "activities",
      "id": "3254",
      "attributes": {
        "text": "Du hast dein Profil ge\u00e4ndert.",
        "name": null,
        "uri": "api.trackyourstress.org\/api\/v1\/users\/199",
        "created_at": {
          "date": "2019-11-25 19:25:29.000000",
          "timezone_type": 3,
          "timezone": "UTC"
        }
      },
      "links": {
        "self": "api.trackyourstress.org\/api\/v1\/activities\/3254"
      }
    },
    {
      "type": "activities",
      "id": "3255",
      "attributes": {
        "text": "Du hast dein Profil ge\u00e4ndert.",
        "name": null,
        "uri": "api.trackyourstress.org\/api\/v1\/users\/199",
        "created_at": {
          "date": "2019-11-25 19:25:29.000000",
          "timezone_type": 3,
          "timezone": "UTC"
        }
      },
      "links": {
        "self": "api.trackyourstress.org\/api\/v1\/activities\/3255"
      }
    },
    {
      "type": "activities",
      "id": "3256",
      "attributes": {
        "text": "Du hast dein Profil ge\u00e4ndert.",
        "name": null,
        "uri": "api.trackyourstress.org\/api\/v1\/users\/199",
        "created_at": {
          "date": "2019-11-25 19:25:29.000000",
          "timezone_type": 3,
          "timezone": "UTC"
        }
      },
      "links": {
        "self": "api.trackyourstress.org\/api\/v1\/activities\/3256"
      }
    },
    {
      "type": "activities",
      "id": "3257",
      "attributes": {
        "text": "Du hast dein Profil ge\u00e4ndert.",
        "name": null,
        "uri": "api.trackyourstress.org\/api\/v1\/users\/199",
        "created_at": {
          "date": "2019-11-25 19:25:29.000000",
          "timezone_type": 3,
          "timezone": "UTC"
        }
      },
      "links": {
        "self": "api.trackyourstress.org\/api\/v1\/activities\/3257"
      }
    },
    {
      "type": "activities",
      "id": "3258",
      "attributes": {
        "text": "Du hast dein Profil ge\u00e4ndert.",
        "name": null,
        "uri": "api.trackyourstress.org\/api\/v1\/users\/199",
        "created_at": {
          "date": "2019-11-25 19:25:30.000000",
          "timezone_type": 3,
          "timezone": "UTC"
        }
      },
      "links": {
        "self": "api.trackyourstress.org\/api\/v1\/activities\/3258"
      }
    },
    {
      "type": "activities",
      "id": "3259",
      "attributes": {
        "text": "Du hast dein Profil ge\u00e4ndert.",
        "name": null,
        "uri": "api.trackyourstress.org\/api\/v1\/users\/199",
        "created_at": {
          "date": "2019-11-25 19:26:42.000000",
          "timezone_type": 3,
          "timezone": "UTC"
        }
      },
      "links": {
        "self": "api.trackyourstress.org\/api\/v1\/activities\/3259"
      }
    },
    {
      "type": "activities",
      "id": "3260",
      "attributes": {
        "text": "Du hast dein Profil ge\u00e4ndert.",
        "name": null,
        "uri": "api.trackyourstress.org\/api\/v1\/users\/199",
        "created_at": {
          "date": "2019-11-25 19:26:42.000000",
          "timezone_type": 3,
          "timezone": "UTC"
        }
      },
      "links": {
        "self": "api.trackyourstress.org\/api\/v1\/activities\/3260"
      }
    },
    {
      "type": "activities",
      "id": "3261",
      "attributes": {
        "text": "Du hast dein Profil ge\u00e4ndert.",
        "name": null,
        "uri": "api.trackyourstress.org\/api\/v1\/users\/199",
        "created_at": {
          "date": "2019-11-25 19:26:42.000000",
          "timezone_type": 3,
          "timezone": "UTC"
        }
      },
      "links": {
        "self": "api.trackyourstress.org\/api\/v1\/activities\/3261"
      }
    },
    {
      "type": "activities",
      "id": "3262",
      "attributes": {
        "text": "Du hast dein Profil ge\u00e4ndert.",
        "name": null,
        "uri": "api.trackyourstress.org\/api\/v1\/users\/199",
        "created_at": {
          "date": "2019-11-25 19:26:45.000000",
          "timezone_type": 3,
          "timezone": "UTC"
        }
      },
      "links": {
        "self": "api.trackyourstress.org\/api\/v1\/activities\/3262"
      }
    },
    {
      "type": "activities",
      "id": "3263",
      "attributes": {
        "text": "Du hast dein Profil ge\u00e4ndert.",
        "name": null,
        "uri": "api.trackyourstress.org\/api\/v1\/users\/199",
        "created_at": {
          "date": "2019-11-25 19:26:45.000000",
          "timezone_type": 3,
          "timezone": "UTC"
        }
      },
      "links": {
        "self": "api.trackyourstress.org\/api\/v1\/activities\/3263"
      }
    },
    {
      "type": "activities",
      "id": "3264",
      "attributes": {
        "text": "Du hast dein Profil ge\u00e4ndert.",
        "name": null,
        "uri": "api.trackyourstress.org\/api\/v1\/users\/199",
        "created_at": {
          "date": "2019-11-25 19:26:45.000000",
          "timezone_type": 3,
          "timezone": "UTC"
        }
      },
      "links": {
        "self": "api.trackyourstress.org\/api\/v1\/activities\/3264"
      }
    },
    {
      "type": "activities",
      "id": "3265",
      "attributes": {
        "text": "Du hast dein Profil ge\u00e4ndert.",
        "name": null,
        "uri": "api.trackyourstress.org\/api\/v1\/users\/199",
        "created_at": {
          "date": "2019-11-25 19:26:46.000000",
          "timezone_type": 3,
          "timezone": "UTC"
        }
      },
      "links": {
        "self": "api.trackyourstress.org\/api\/v1\/activities\/3265"
      }
    },
    {
      "type": "activities",
      "id": "3266",
      "attributes": {
        "text": "Du hast dein Profil ge\u00e4ndert.",
        "name": null,
        "uri": "api.trackyourstress.org\/api\/v1\/users\/199",
        "created_at": {
          "date": "2019-11-25 19:27:52.000000",
          "timezone_type": 3,
          "timezone": "UTC"
        }
      },
      "links": {
        "self": "api.trackyourstress.org\/api\/v1\/activities\/3266"
      }
    }
  ],
  "meta": {
    "count": 1,
    "include": [],
    "translated": [],
    "pagination": {
      "total": 37,
      "count": 15,
      "per_page": 15,
      "current_page": 1,
      "total_pages": 3
    }
  },
  "links": {
    "self": "https:\/\/api.trackyourstress.org\/api\/v1\/my\/activities?token=eyJ0eXAiOiJKV1QiLCJhbGciOiJIUzI1NiJ9.eyJzdWIiOjE5OSwiaXNzIjoiaHR0cHM6Ly9hcGkudHJhY2t5b3Vyc3RyZXNzLm9yZy9hcGkvdjEvYXV0aC9sb2dpbiIsImlhdCI6MTU4MjcyNjEwMywiZXhwIjoxNTgyNzI5NzAzLCJuYmYiOjE1ODI3MjYxMDMsImp0aSI6ImZaWko2MDNEbWZlNTQ2UmEifQ.EuXbT-BDhiWwNM7ZTZFGe2SH79MVgBYoeZ616Pa_o6U&page=1",
    "first": "https:\/\/api.trackyourstress.org\/api\/v1\/my\/activities?token=eyJ0eXAiOiJKV1QiLCJhbGciOiJIUzI1NiJ9.eyJzdWIiOjE5OSwiaXNzIjoiaHR0cHM6Ly9hcGkudHJhY2t5b3Vyc3RyZXNzLm9yZy9hcGkvdjEvYXV0aC9sb2dpbiIsImlhdCI6MTU4MjcyNjEwMywiZXhwIjoxNTgyNzI5NzAzLCJuYmYiOjE1ODI3MjYxMDMsImp0aSI6ImZaWko2MDNEbWZlNTQ2UmEifQ.EuXbT-BDhiWwNM7ZTZFGe2SH79MVgBYoeZ616Pa_o6U&page=1",
    "next": "https:\/\/api.trackyourstress.org\/api\/v1\/my\/activities?token=eyJ0eXAiOiJKV1QiLCJhbGciOiJIUzI1NiJ9.eyJzdWIiOjE5OSwiaXNzIjoiaHR0cHM6Ly9hcGkudHJhY2t5b3Vyc3RyZXNzLm9yZy9hcGkvdjEvYXV0aC9sb2dpbiIsImlhdCI6MTU4MjcyNjEwMywiZXhwIjoxNTgyNzI5NzAzLCJuYmYiOjE1ODI3MjYxMDMsImp0aSI6ImZaWko2MDNEbWZlNTQ2UmEifQ.EuXbT-BDhiWwNM7ZTZFGe2SH79MVgBYoeZ616Pa_o6U&page=2",
    "last": "https:\/\/api.trackyourstress.org\/api\/v1\/my\/activities?token=eyJ0eXAiOiJKV1QiLCJhbGciOiJIUzI1NiJ9.eyJzdWIiOjE5OSwiaXNzIjoiaHR0cHM6Ly9hcGkudHJhY2t5b3Vyc3RyZXNzLm9yZy9hcGkvdjEvYXV0aC9sb2dpbiIsImlhdCI6MTU4MjcyNjEwMywiZXhwIjoxNTgyNzI5NzAzLCJuYmYiOjE1ODI3MjYxMDMsImp0aSI6ImZaWko2MDNEbWZlNTQ2UmEifQ.EuXbT-BDhiWwNM7ZTZFGe2SH79MVgBYoeZ616Pa_o6U&page=3"
  }
}